## Interface: 70300
## Title: RunAwayFromPela Options
## Author: Sk
## Version: v0.1
## Notes: Configuration options for RunAwayFromPela, code based heavily on RangeDisplay by mitch0
## OptionalDeps: AceGUI-3.0-SharedMediaWidgets
## Dependencies: RunAwayFromPela
## LoadOnDemand: 1
## X-License: Public Domain

#@no-lib-strip@
libs\Ace3\AceGUI-3.0\AceGUI-3.0.xml
libs\Ace3\AceConfig-3.0\AceConfigRegistry-3.0\AceConfigRegistry-3.0.xml
libs\Ace3\AceConfig-3.0\AceConfigDialog-3.0\AceConfigDialog-3.0.xml
libs\Ace3\AceDBOptions-3.0\AceDBOptions-3.0.xml
libs\AceGUI-3.0-SharedMediaWidgets\widget.xml
#@end-no-lib-strip@

localizations.lua
Options.lua
